NAME,POSITION,URL
Arnaud Ferraris,Mobian maintainer,
Bart Ribbers,postmarketOS Core Team member,
Bhushan Shah,KDE Plasma Mobile developer,
Biktor Garcia,Pinephone Modem developer,
Caleb Connolly,Linux mobile developer and postmarketOS Core Team member,
Chris Talbot,MMS and Mobian Developer,
Clayton Craft,postmarketOS Core Team member and app  developer,
Dylan Van Assche,Linux Mobile developer and postmarketOS Core Team member,https://dylanvanassche.be/
Evangelos Ribeiro Tzaras,GNOME Calls and Debian maintainer,
Guido Günther,Phosh and Debian developer,
Martijn Braam,postmarketOS Core Team member and app developer,
Oliver Smith,postmarketOS Core Team member,
Sebastian Spaeth,Mobian member,
